{
    "hash": {
        "method": "sha256",
        "encoding": "hex",
        "key": "d860de7de175fa16"
        
    },
    
    "cipher": {
        "method": "aes256",
        "encoding": "base64",
        "key": "xPqJKxiXHl0FCIY6kXlvZsYp5tvS6rQN+TxQFVfR78c="
    }
}
